Ch9-KoreanLIfe
…
:      ,    166  .   92  .

  ,  

sex_age <- welfare %>% filter(!is.na(income)) %>% group_by(age, sex) %>% summarise(mean_income=mean(income))

## `summarise()` has grouped output by 'age'. You can override using the `.groups` argument.

sex_age

## # A tibble: 134 x 3
## # Groups:   age [69]
##      age sex    mean_income
##    <dbl> <chr>        <dbl>
##  1    20 female        147.
##  2    20 male           69 
##  3    21 female        107.
##  4    21 male          102.
##  5    22 female        140.
##  6    22 male          118.
##  7    23 female        139.
##  8    23 male          153.
##  9    24 female        126.
## 10    24 male          158.
## # ... with 124 more rows
…
